3.54286	4.52302E-4
3.5378	0.00117
3.53276	8.48084E-4
3.52774	3.20568E-4
3.52273	-8.10839E-4
3.51773	3.2535E-4
3.51275	-2.31151E-4
3.50778	7.08814E-4
3.50282	9.30254E-4
3.49788	9.15617E-4
3.49296	-5.2882E-4
3.48805	4.77808E-4
3.48315	7.90115E-4
3.47826	7.19973E-4
3.47339	0.00145
3.46853	0.00136
3.46369	0.00124
3.45886	0.00184
3.45404	0.00159
3.44924	0.00203
3.44444	0.00388
3.43967	0.00366
3.4349	0.00382
3.43015	0.00827
3.42541	0.00763
3.42069	0.00958
3.41598	0.01096
3.41128	0.01357
3.40659	0.01739
3.40192	0.02082
3.39726	0.02531
3.39261	0.03155
3.38798	0.03716
3.38336	0.04582
3.37875	0.05471
3.37415	0.06619
3.36957	0.07732
3.36499	0.09602
3.36043	0.11493
3.35589	0.13401
3.35135	0.15893
3.34683	0.19262
3.34232	0.23011
3.33782	0.28907
3.33333	0.348
3.32886	0.4152
3.3244	0.49354
3.31995	0.58607
3.31551	0.67811
3.31108	0.76681
3.30667	0.85557
3.30226	0.92332
3.29787	0.9752
3.29349	0.9964
3.28912	1
3.28477	0.97807
3.28042	0.97049
3.27609	0.93932
3.27177	0.90392
3.26746	0.8683
3.26316	0.83044
3.25887	0.78595
3.25459	0.74596
3.25033	0.69733
3.24607	0.64882
3.24183	0.60195
3.2376	0.54402
3.23338	0.49794
3.22917	0.4526
3.22497	0.40318
3.22078	0.36165
3.2166	0.32995
3.21244	0.3044
3.20828	0.27523
3.20413	0.25427
3.2	0.2354
3.19588	0.21314
3.19176	0.20017
3.18766	0.1862
3.18357	0.17299
3.17949	0.15974
3.17542	0.15256
3.17136	0.14208
3.16731	0.13027
3.16327	0.11863
3.15924	0.11354
3.15522	0.10141
3.15121	0.08981
3.14721	0.08608
3.14322	0.07805
3.13924	0.07222
3.13527	0.0641
3.13131	0.06273
3.12736	0.05597
3.12343	0.0512
3.1195	0.04769
3.11558	0.04436
3.11167	0.0445
3.10777	0.03969
3.10388	0.03793
3.1	0.03516
3.09613	0.03358
3.09227	0.02988
3.08842	0.02738
3.08458	0.0275
3.08075	0.02633
3.07692	0.02207
3.07311	0.02125
3.06931	0.01902
3.06551	0.01749
3.06173	0.01646
3.05795	0.0161
3.05419	0.01495
3.05043	0.01495
3.04668	0.01392
3.04294	0.01215
3.03922	0.01189
3.0355	0.01251
3.03178	0.00985
3.02808	0.01029
3.02439	0.00908
3.02071	0.00836
3.01703	0.00904
3.01337	0.00797
3.00971	0.00827
3.00606	0.00688
3.00242	0.00488
2.99879	0.0059
2.99517	0.00613
2.99156	0.0054
2.98795	0.0071
2.98436	0.00553
2.98077	0.00493
2.97719	0.00605
2.97362	0.00248
2.97006	0.00424
2.96651	0.00549
2.96296	0.004
2.95943	0.00518
2.9559	0.00388
2.95238	0.00447
2.94887	0.00427
2.94537	0.00572
2.94187	0.00373
2.93839	0.00343
2.93491	0.00487
2.93144	0.00381
2.92798	0.00328
2.92453	0.0036
2.92108	0.00297
2.91765	0.00237
2.91422	0.00276
2.9108	0.00289
2.90739	0.00193
2.90398	0.00179
2.90058	0.00268
2.8972	0.00315
2.89382	0.00367
2.89044	0.00332
2.88708	0.00373
2.88372	0.00346
2.88037	0.00384
2.87703	0.00332
2.8737	0.0024
2.87037	0.00281
2.86705	0.00425
2.86374	0.00296
2.86044	0.0022
2.85714	0.00353
2.85386	0.00357
2.85057	0.0029
2.8473	0.00358
2.84404	0.00513
2.84078	0.00497
2.83753	0.00399
2.83429	0.00454
2.83105	0.00342
2.82782	0.00366
2.8246	0.00413
2.82139	0.0054
2.81818	0.00358
2.81498	0.00382
2.81179	0.0041
2.80861	0.00392
2.80543	0.00449
2.80226	0.00547
2.7991	0.00592
2.79594	0.00461
2.79279	0.00576
2.78965	0.00483
2.78652	0.00578
2.78339	0.00571
2.78027	0.00806
2.77716	0.00593
2.77405	0.00618
2.77095	0.00608
2.76786	0.00715
2.76477	0.00605
2.76169	0.00789
2.75862	0.00716
2.75556	0.00691
2.7525	0.00718
2.74945	0.0064
2.7464	0.00668
2.74336	0.00801
2.74033	0.0071
2.73731	0.00889
2.73429	0.00926
2.73128	0.00891
2.72827	0.0086
2.72527	0.00885
2.72228	0.00867
2.7193	0.00957
2.71632	0.00902
2.71335	0.00957
2.71038	0.01004
2.70742	0.00964
2.70447	0.01073
2.70153	0.01053
2.69859	0.00868
2.69565	0.00964
2.69273	0.012
2.6898	0.01171
2.68689	0.01176
2.68398	0.01254
2.68108	0.01187
2.67819	0.0132
2.6753	0.01165
2.67241	0.01264
2.66954	0.01322
2.66667	0.01277
2.6638	0.01165
2.66094	0.01342
2.65809	0.01234
2.65525	0.01274
2.65241	0.01447
2.64957	0.01396
2.64674	0.01298
2.64392	0.01436
2.64111	0.01541
2.6383	0.01192
2.63549	0.01506
2.6327	0.01483
2.6299	0.01449
2.62712	0.01403
2.62434	0.01651
2.62156	0.01531
2.6188	0.01424
2.61603	0.01758
2.61328	0.01741
2.61053	0.017
2.60778	0.01757
2.60504	0.0191
2.60231	0.01812
2.59958	0.01729
2.59686	0.01783
2.59414	0.01727
2.59143	0.01852
2.58873	0.0201
2.58603	0.01738
2.58333	0.02034
2.58065	0.01898
2.57796	0.01902
2.57529	0.02002
2.57261	0.02194
2.56995	0.01987
2.56729	0.01859
2.56463	0.02084
2.56198	0.01948
2.55934	0.02211
2.5567	0.02298
2.55407	0.02173
2.55144	0.02134
2.54882	0.02185
2.5462	0.02109
2.54359	0.02244
2.54098	0.0237
2.53838	0.02381
2.53579	0.02271
2.5332	0.02314
2.53061	0.02415
2.52803	0.02367
2.52546	0.025
2.52289	0.02416
2.52033	0.02392
2.51777	0.02423
2.51521	0.02454
2.51266	0.02687
2.51012	0.02576
2.50758	0.02637
2.50505	0.02874
2.50252	0.02721
2.5	0.02743
2.49748	0.02739
2.49497	0.02407
2.49246	0.02733
2.48996	0.02477
2.48746	0.02615
2.48497	0.02462
2.48248	0.02814
2.48	0.02485
2.47752	0.02776
2.47505	0.02901
2.47258	0.02691
2.47012	0.02639
2.46766	0.02998
2.46521	0.02562
2.46276	0.02463
2.46032	0.02663
2.45788	0.02718
2.45545	0.02551
2.45302	0.02704
2.45059	0.02886
2.44817	0.02844
2.44576	0.02722
2.44335	0.02804
2.44094	0.02729
2.43854	0.026
2.43615	0.02674
2.43376	0.02614
2.43137	0.02642
2.42899	0.02809
2.42661	0.02586
2.42424	0.0277
2.42188	0.02635
2.41951	0.02652
2.41715	0.02787
2.4148	0.02594
2.41245	0.02703
2.41011	0.02766
2.40777	0.02984
2.40543	0.02756
2.4031	0.02574
2.40077	0.0289
2.39845	0.03006
2.39614	0.02888
2.39382	0.02701
2.39151	0.02892
2.38921	0.0291
2.38691	0.02804
2.38462	0.0259
2.38232	0.02726
2.38004	0.03066
2.37776	0.03057
2.37548	0.02808
2.37321	0.02683
2.37094	0.02734
2.36867	0.03039
2.36641	0.02814
2.36416	0.02787
2.3619	0.02859
2.35966	0.02773
2.35741	0.02999
2.35518	0.02878
2.35294	0.02993
2.35071	0.02833
2.34848	0.0285
2.34626	0.02812
2.34405	0.02994
2.34183	0.02757
2.33962	0.02905
2.33742	0.0278
2.33522	0.02864
2.33302	0.02877
2.33083	0.02763
2.32864	0.02861
2.32645	0.02768
2.32427	0.02979
2.3221	0.02901
2.31993	0.02865
2.31776	0.03102
2.31559	0.02925
2.31343	0.03005
2.31128	0.03167
2.30912	0.02788
2.30698	0.0308
2.30483	0.02792
2.30269	0.02995
2.30056	0.03019
2.29842	0.02924
2.2963	0.02986
2.29417	0.03161
2.29205	0.0289
2.28994	0.02985
2.28782	0.02926
2.28571	0.02789
2.28361	0.03017
2.28151	0.03323
2.27941	0.02945
2.27732	0.0307
2.27523	0.03131
2.27314	0.03091
2.27106	0.03088
2.26898	0.02981
2.26691	0.02945
2.26484	0.03257
2.26277	0.02869
2.26071	0.03017
2.25865	0.02953
2.2566	0.0304
2.25455	0.0308
2.2525	0.02761
2.25045	0.03349
2.24841	0.03378
2.24638	0.02804
2.24434	0.02996
2.24231	0.03147
2.24029	0.02854
2.23827	0.03056
2.23625	0.02835
2.23423	0.03049
2.23222	0.03122
2.23022	0.03401
2.22821	0.02939
2.22621	0.02435
2.22422	0.03016
2.22222	0.03014
2.22023	0.02759
2.21825	0.03006
2.21626	0.02823
2.21429	0.02927
2.21231	0.03049
2.21034	0.02866
2.20837	0.03014
2.20641	0.03023
2.20444	0.03073
2.20249	0.02997
2.20053	0.02984
2.19858	0.0321
2.19663	0.02754
2.19469	0.03036
2.19275	0.03049
2.19081	0.03161
2.18888	0.0286
2.18695	0.02821
2.18502	0.02766
2.1831	0.02874
2.18118	0.02801
2.17926	0.02863
2.17735	0.02671
2.17544	0.02998
2.17353	0.02784
2.17163	0.02791
2.16973	0.0295
2.16783	0.02825
2.16594	0.02875
2.16405	0.02817
2.16216	0.02727
2.16028	0.02874
2.1584	0.02718
2.15652	0.02794
2.15465	0.02845
2.15278	0.02936
2.15091	0.02852
2.14905	0.02743
2.14719	0.02902
2.14533	0.03165
2.14347	0.0291
2.14162	0.02559
2.13978	0.0305
2.13793	0.03036
2.13609	0.02769
2.13425	0.0265
2.13242	0.0282
2.13058	0.02786
2.12876	0.02827
2.12693	0.02954
2.12511	0.02782
2.12329	0.02925
2.12147	0.02915
2.11966	0.0275
2.11785	0.02931
2.11604	0.02725
2.11424	0.0266
2.11244	0.02785
2.11064	0.02902
2.10884	0.0264
2.10705	0.02814
2.10526	0.02833
2.10348	0.02782
2.10169	0.0299
2.09992	0.02875
2.09814	0.02774
2.09637	0.02606
2.09459	0.02787
2.09283	0.02663
2.09106	0.02707
2.0893	0.02649
2.08754	0.02918
2.08579	0.02753
2.08403	0.02677
2.08228	0.02658
2.08054	0.02602
2.07879	0.02713
2.07705	0.02874
2.07531	0.02612
2.07358	0.02666
2.07185	0.02766
2.07012	0.0259
2.06839	0.02646
2.06667	0.02694
2.06495	0.02543
2.06323	0.02687
2.06151	0.02885
2.0598	0.02659
2.05809	0.02609
2.05638	0.02589
2.05468	0.02501
2.05298	0.02502
2.05128	0.02452
2.04959	0.0237
2.04789	0.02504
2.0462	0.02526
2.04452	0.02428
2.04283	0.02606
2.04115	0.02531
2.03947	0.02723
2.0378	0.02539
2.03612	0.02362
2.03445	0.02672
2.03279	0.02473
2.03112	0.02524
2.02946	0.02423
2.0278	0.02537
2.02614	0.02484
2.02449	0.02593
2.02284	0.02262
2.02119	0.0259
2.01954	0.02387
2.0179	0.02462
2.01626	0.02386
2.01462	0.02402
2.01299	0.02453
2.01135	0.02586
2.00972	0.02408
2.0081	0.02444
2.00647	0.0248
2.00485	0.02326
2.00323	0.02394
2.00161	0.02345
2	0.02402
1.99839	0.02418
1.99678	0.02324
1.99517	0.02229
1.99357	0.0239
1.99197	0.02343
1.99037	0.02288
1.98877	0.02232
1.98718	0.02274
1.98559	0.02204
1.984	0.02112
1.98241	0.02304
1.98083	0.02242
1.97925	0.02286
1.97767	0.02153
1.9761	0.0218
1.97452	0.02122
1.97295	0.02195
1.97138	0.02281
1.96982	0.02182
1.96825	0.02241
1.96669	0.02033
1.96513	0.02078
1.96358	0.02085
1.96203	0.01937
1.96047	0.02096
1.95893	0.01987
1.95738	0.02087
1.95584	0.02008
1.95429	0.02114
1.95276	0.02063
1.95122	0.01905
1.94969	0.02061
1.94815	0.02156
1.94662	0.019
1.9451	0.01943
1.94357	0.01931
1.94205	0.01757
1.94053	0.01902
1.93901	0.01929
1.9375	0.01767
1.93599	0.01759
1.93448	0.01772
1.93297	0.01852
1.93146	0.0188
1.92996	0.0188
1.92846	0.01845
1.92696	0.01737
1.92547	0.01931
1.92397	0.01721
1.92248	0.01851
1.92099	0.0182
1.9195	0.01749
1.91802	0.01869
1.91654	0.01772
1.91506	0.01914
1.91358	0.01679
1.9121	0.01781
1.91063	0.01687
1.90916	0.01707
1.90769	0.01687
1.90623	0.01735
1.90476	0.01708
1.9033	0.01746
1.90184	0.01848
1.90038	0.01691
1.89893	0.01757
1.89748	0.01679
1.89602	0.01543
1.89458	0.01499
1.89313	0.01585
1.89169	0.01807
1.89024	0.017
1.8888	0.01706
1.88737	0.01634
1.88593	0.01513
1.8845	0.01478
1.88307	0.01546
1.88164	0.01548
1.88021	0.01672
1.87879	0.01454
1.87737	0.01542
1.87595	0.01451
1.87453	0.01534
1.87311	0.01526
1.8717	0.01577
1.87029	0.01574
1.86888	0.01621
1.86747	0.01571
1.86606	0.01488
1.86466	0.01442
1.86326	0.01519
1.86186	0.0149
1.86047	0.01378
1.85907	0.01617
1.85768	0.01482
1.85629	0.01532
1.8549	0.01474
1.85351	0.01282
1.85213	0.01389
1.85075	0.01376
1.84937	0.01295
1.84799	0.01439
1.84661	0.01513
1.84524	0.01343
1.84387	0.01384
1.8425	0.01266
1.84113	0.01354
1.83976	0.01324
1.8384	0.01421
1.83704	0.01356
1.83568	0.01301
1.83432	0.0143
1.83296	0.01372
1.83161	0.01346
1.83026	0.01471
1.82891	0.01332
1.82756	0.01206
1.82622	0.01251
1.82487	0.01432
1.82353	0.01376
1.82219	0.01321
1.82085	0.01344
1.81952	0.01267
1.81818	0.01159
1.81685	0.01211
1.81552	0.01104
1.81419	0.01406
1.81287	0.01416
1.81154	0.01255
1.81022	0.01253
1.8089	0.01204
1.80758	0.01195
1.80626	0.01145
1.80495	0.0132
1.80364	0.01209
1.80233	0.01139
1.80102	0.01238
1.79971	0.01175
1.7984	0.01145
1.7971	0.01303
1.7958	0.01105
1.7945	0.01267
1.7932	0.01128
1.79191	0.00955
1.79061	0.00918
1.78932	0.0103
1.78803	0.00967
1.78674	0.01012
1.78546	0.01353
1.78417	0.01179
1.78289	0.01098
1.78161	0.01016
1.78033	0.01005
1.77905	0.01076
1.77778	0.01103
1.7765	0.01079
1.77523	0.01051
1.77396	0.01183
1.77269	0.01071
1.77143	0.01023
1.77016	0.0101
1.7689	0.00948
1.76764	0.01063
1.76638	0.01033
1.76512	0.01001
1.76387	0.00889
1.76262	0.00859
1.76136	0.00729
1.76011	0.00906
1.75887	0.00883
1.75762	0.00969
1.75637	0.01026
1.75513	0.00861
1.75389	0.00886
1.75265	0.0062
1.75141	0.00803
1.75018	0.00745
1.74894	0.00816
1.74771	0.007
1.74648	0.00731
1.74525	0.00802
1.74402	0.01017
1.7428	0.00739
1.74157	0.00667
1.74035	0.00867
1.73913	0.00835
1.73791	0.00844
1.73669	0.00748
1.73548	0.0075
1.73427	0.00777
1.73305	0.00934
1.73184	0.00623
1.73064	0.007
1.72943	0.00665
1.72822	0.0065
1.72702	0.00714
1.72582	0.007
1.72462	0.00601
1.72342	0.00587
1.72222	0.00618
1.72103	0.00537
1.71983	0.00638
1.71864	0.00702
1.71745	0.00696
1.71626	0.0057
1.71508	0.00708
1.71389	0.0064
1.71271	0.00628
1.71153	0.00625
1.71034	0.00644
1.70917	0.00713
1.70799	0.00644
1.70681	0.007
1.70564	0.00718
1.70447	0.00467
1.7033	0.00666
1.70213	0.00532
1.70096	0.00673
1.69979	0.00668
1.69863	0.0054
1.69747	0.00666
1.69631	0.0054
1.69515	0.00491
1.69399	0.00306
1.69283	0.00585
1.69168	0.00744
1.69052	0.00628
1.68937	0.00503
1.68822	0.00403
1.68707	0.00629
1.68593	0.00516
1.68478	0.00595
1.68364	0.00496
1.6825	0.00469
1.68136	0.00613
1.68022	0.00608
1.67908	0.00461
1.67794	0.00525
1.67681	0.00388
1.67568	0.00544
1.67454	0.00475
1.67341	0.0049
1.67229	0.00508
1.67116	0.00434
1.67003	0.00458
1.66891	0.00456
1.66779	0.00553
1.66667	0.00474
1.66555	0.00523
1.66443	0.00394
1.66331	0.00499
1.6622	0.00498
1.66109	0.00416
1.65997	0.00487
1.65886	0.00475
1.65775	0.00532
1.65665	0.00297
1.65554	0.00374
1.65444	0.00485
1.65333	0.00464
1.65223	0.00438
1.65113	0.00544
1.65003	0.00371
1.64894	0.00401
1.64784	0.00536
1.64675	0.00507
1.64565	0.00386
1.64456	0.00364
1.64347	0.00172
1.64238	0.00376
1.6413	0.00493
1.64021	0.00378
1.63913	0.00467
1.63804	0.00219
1.63696	0.00235
1.63588	0.00306
1.63481	0.00401
1.63373	0.00453
1.63265	0.00328
1.63158	0.00532
1.63051	0.00332
1.62943	0.00376
1.62837	0.00323
1.6273	0.00343
1.62623	0.00285
1.62516	0.00383
1.6241	0.00372
1.62304	0.0032
1.62198	0.00231
1.62092	0.00276
1.61986	0.00411
1.6188	0.00268
1.61774	0.00436
1.61669	0.00233
1.61564	0.00265
1.61458	0.00466
1.61353	0.00334
1.61248	0.00339
1.61144	0.00365
1.61039	0.00543
1.60934	0.0035
1.6083	0.00355
1.60726	0.00331
1.60622	0.00311
1.60518	0.0029
1.60414	0.00317
1.6031	0.00341
1.60207	0.00223
1.60103	0.00265
1.6	0.00201
1.59897	4.81721E-4
1.59794	0.00435
1.59691	0.00222
1.59588	0.00205
1.59486	0.00361
1.59383	0.00261
1.59281	0.00327
1.59178	0.00453
1.59076	0.0041
1.58974	0.00201
1.58873	0.00168
1.58771	0.00264
1.58669	0.00487
1.58568	0.00328
1.58466	0.00227
1.58365	0.00208
1.58264	5.21719E-4
1.58163	0.0016
1.58062	0.00407
1.57962	0.00297
1.57861	9.08951E-4
1.57761	0.00162
1.57661	0.00407
1.5756	0.00179
1.5746	0.00284
1.5736	0.00255
1.57261	0.00169
1.57161	0.0033
1.57061	0.00152
1.56962	0.00143
1.56863	0.00189
1.56764	0.00193
1.56665	0.00213
1.56566	0.00132
1.56467	0.00152
1.56368	0.00231
1.5627	0.00308
1.56171	-5.99977E-5
1.56073	-1.79124E-4
1.55975	1.50719E-4
1.55877	0.00138
1.55779	0.00437
1.55681	7.12582E-4
1.55583	7.3461E-4
1.55486	0.00135
1.55388	0.00159
1.55291	0.00143
1.55194	0.00357
1.55097	0.00141
1.55	0.00142
1.54903	0.00272
1.54806	0.00182
1.5471	0.00144
1.54613	7.18089E-4
1.54517	0.00177
1.54421	0.00207
1.54325	0.00199
1.54229	0.00283
1.54133	0.00194
1.54037	0.00123
1.53942	0.00219
1.53846	0.00169
1.53751	0.00122
1.53656	0.00124
1.5356	0.00137
1.53465	0.00152
1.5337	0.00234
1.53276	9.44167E-4
1.53181	0.00281
1.53086	0.00123
1.52992	0.00124
1.52898	0.00104
1.52803	-1.34343E-4
1.52709	0.00287
1.52615	8.73735E-4
1.52522	0.00127
1.52428	0.00232
1.52334	6.99973E-4
1.52241	9.14313E-4
1.52147	-3.98536E-5
1.52054	8.9272E-4
1.51961	0.00121
1.51868	-7.26059E-5
1.51775	0.00208
1.51682	0.00142
1.51589	0.00275
1.51497	5.6679E-4
1.51404	0.00131
1.51312	2.98394E-4
1.5122	3.57957E-5
1.51127	1.59849E-4
1.51035	0.00177
1.50943	0.00131
1.50852	0.00136
1.5076	0.00221
1.50668	5.56646E-4
1.50577	8.24461E-4
1.50485	0.00172
1.50394	1.85065E-4
1.50303	8.69097E-4
1.50212	5.43313E-4
1.50121	0.00108
1.5003	4.28824E-4
1.4994	5.89833E-5
1.49849	-4.56649E-4
1.49758	0.00147
1.49668	0.00145
1.49578	3.08684E-5
1.49488	0.0013
1.49398	0.00111
1.49308	1.03329E-4
1.49218	5.50849E-4
1.49128	0.00129
1.49038	7.84898E-4
1.48949	0.00123
1.4886	0.00377
1.4877	3.43465E-5
1.48681	0.00174
1.48592	1.95935E-4
1.48503	0.00101
1.48414	5.9418E-4
1.48325	2.16224E-4
1.48237	6.21715E-4
1.48148	5.85485E-5
1.4806	7.85912E-4
1.47971	2.22455E-4
1.47883	2.66512E-4
1.47795	0.00163
1.47707	9.29385E-4
1.47619	0.00231
1.47531	0.00108
1.47444	0.00186
1.47356	0.00106
1.47268	0.00112
1.47181	2.20426E-4
1.47094	9.65615E-4
1.47007	6.49975E-4
1.46919	1.83471E-4
1.46832	5.55196E-4
1.46746	5.90557E-4
1.46659	1.84776E-4
1.46572	0.00161
1.46486	0.0016
1.46399	-0.00152
1.46313	-7.54174E-4
1.46226	-3.36509E-4
1.4614	1.59994E-4
1.46054	-4.06796E-4
1.45968	3.21727E-4
1.45882	7.891E-4
